module go.com

go 1.15

require (
	github.com/bmizerany/pat v0.0.0-20170815010413-6226ea591a40
	github.com/golangcollege/sessions v1.2.0
	github.com/jackc/pgx/v4 v4.10.1
	github.com/justinas/alice v1.2.0
	github.com/pkg/errors v0.9.1
	golang.org/x/crypto v0.0.0-20201221181555-eec23a3978ad
	golang.org/x/text v0.3.4


)
